Data Science Applied to Ag - Final Project - Design
…
If a chunk produces output, like printing a data frame, statistical summary, a plot, ANOVA table, etc., make sure to write text interpreting what you see and how you can/will use that information to move forward to the next steps in the workflow.

#Load the libraries

#1) Reading data and data wrangling

labscale <- read_excel("../data/Results_labscale.xlsx") %>%
  mutate(Rep = factor(Rep),
         Pathogen = factor(Pathogen),
         Formulation = factor(Formulation),
         Temp = factor(Temp))
labscale

# A tibble: 303 × 6
   Pathogen Temp  Rep   Formulation  Time LogCFU
   <fct>    <fct> <fct> <fct>       <dbl>  <dbl>
 1 Listeria 5     1     A               0   7.33
 2 Listeria 5     1     A               8   6.54
 3 Listeria 5     1     A              16   6.42
 4 Listeria 5     1     A              24   6.23
 5 Listeria 5     1     A              32   5.83
 6 Listeria 5     1     A              40   5.97
 7 Listeria 5     1     A              48   4.87
 8 Listeria 5     1     A              66   4.71
 9 Listeria 5     1     A              72   3.07
10 Listeria 5     1     A              80   2.41
# ℹ 293 more rows
…
7.2 b) Model Assumptions

# Augmenting and adding perason standardized residuals
mod1_int_aug <- augment(mod1_int) %>%
  mutate(.stdresid = resid(mod1_int, 
                           type = "pearson", 
                           scaled = T)) %>%
  left_join(labscale)

mod1_int_aug

# A tibble: 489 × 18
   LogCFU Rep   .fitted  .resid    .hat   .cooksd .fixed   .mu .offset .sqrtXwt
    <dbl> <fct>   <dbl>   <dbl>   <dbl>     <dbl>  <dbl> <dbl>   <dbl>    <dbl>
 1   7.33 1        5.91  1.42   0.00702 0.00592     5.47  5.91       0        1
 2   6.54 1        5.91  0.631  0.00702 0.00117     5.47  5.91       0        1
 3   6.42 1        5.91  0.511  0.00702 0.000767    5.47  5.91       0        1
 4   6.42 1        5.91  0.511  0.00702 0.000767    5.47  5.91       0        1
 5   6.23 1        5.91  0.321  0.00702 0.000303    5.47  5.91       0        1
 6   5.83 1        5.91 -0.0786 0.00702 0.0000181   5.47  5.91       0        1
 7   5.97 1        5.91  0.0614 0.00702 0.0000111   5.47  5.91       0        1
 8   4.87 1        5.91 -1.04   0.00702 0.00316     5.47  5.91       0        1
 9   4.71 1        5.91 -1.20   0.00702 0.00421     5.47  5.91       0        1
10   3.07 1        5.91 -2.84   0.00702 0.0236      5.47  5.91       0        1
# ℹ 479 more rows
# ℹ 8 more variables: .sqrtrwt <dbl>, .weights <dbl>, .wtres <dbl>,
#   .stdresid <dbl>, Pathogen <fct>, Temp <fct>, Formulation <fct>, Time <dbl>
…
Joining with `by = join_by(LogCFU, Pathogen, Formulation, Temp, Time, Rep)`

Warning in left_join(., labscale): Detected an unexpected many-to-many relationship between `x` and `y`.
ℹ Row 183 of `x` matches multiple rows in `y`.
ℹ Row 183 of `y` matches multiple rows in `x`.
ℹ If a many-to-many relationship is expected, set `relationship =
  "many-to-many"` to silence this warning.

mod2_lin_aug

# A tibble: 305 × 18
   LogCFU Pathogen Formulation Temp   Time Rep   .fitted  .resid   .hat  .cooksd
    <dbl> <fct>    <fct>       <fct> <dbl> <fct>   <dbl>   <dbl>  <dbl>    <dbl>
 1   7.33 Listeria A           5         0 1        7.36 -0.0308 0.111   2.15e-5
 2   6.54 Listeria A           5         8 1        6.90 -0.356  0.0845  2.06e-3
 3   6.42 Listeria A           5        16 1        6.43 -0.0118 0.0638  1.63e-6
 4   6.23 Listeria A           5        24 1        5.97  0.263  0.0494  6.07e-4
 5   5.83 Listeria A           5        32 1        5.50  0.327  0.0411  7.72e-4
 6   5.97 Listeria A           5        40 1        5.04  0.932  0.0391  5.92e-3
 7   4.87 Listeria A           5        48 1        4.57  0.296  0.0433  6.69e-4
 8   4.71 Listeria A           5        66 1        3.53  1.18   0.0755  1.98e-2
 9   3.07 Listeria A           5        72 1        3.18 -0.110  0.0932  2.22e-4
10   2.41 Listeria A           5        80 1        2.72 -0.306  0.122   2.39e-3
# ℹ 295 more rows
# ℹ 8 more variables: .fixed <dbl>, .mu <dbl>, .offset <dbl>, .sqrtXwt <dbl>,
#   .sqrtrwt <dbl>, .weights <dbl>, .wtres <dbl>, .stdresid <dbl>
…
